<?xml version="1.0" encoding="utf-8"?>
<!-- Generator: Adobe Illustrator 25.3.1, SVG Export Plug-In . SVG Version: 6.00 Build 0)  -->
<svg version="1.1" id="Ebene_1" xmlns="http://www.w3.org/2000/svg" xmlns:xlink="http://www.w3.org/1999/xlink" x="0px" y="0px"
	 viewBox="0 0 617.5 84.6" style="enable-background:new 0 0 617.5 84.6;" xml:space="preserve">
<style type="text/css">
	.st0{fill:#12284B;}
	.st1{fill:#00244E;}
	.st2{fill:#C4214F;}
	.st3{fill:#002650;}
	.st4{fill:#002750;}
	.st5{fill:#E2E5EA;}
	.st6{fill:#405177;}
	.st7{fill:#C0C6D3;}
	.st8{fill:#E2E5EB;}
	.st9{fill:#A0A7BE;}
	.st10{fill:#536589;}
	.st11{fill:#CED5E0;}
	.st12{fill:#54678B;}
	.st13{fill:#344C73;}
	.st14{fill:#57688D;}
	.st15{fill:#A0A6BD;}
	.st16{fill:#D1D7E0;}
	.st17{fill:#8D97B1;}
	.st18{fill:#C5CDD8;}
	.st19{fill:#F6F5F7;}
	.st20{fill:#B9BDCD;}
	.st21{fill:#BCC3D3;}
	.st22{fill:#D8DDE5;}
</style>
<g>
	<g>
		<path class="st0" d="M3.9,70.6c4.4,2.7,10.9,5,17.7,5c10.1,0,16-5.3,16-13.1c0-7.2-4.1-11.3-14.4-15.2C10.7,42.9,3,36.4,3,25.6
			C3,13.7,12.9,4.8,27.8,4.8c7.8,0,13.5,1.8,16.9,3.8L42,16.6c-2.5-1.4-7.6-3.6-14.6-3.6C17,13,13,19.2,13,24.5
			c0,7.2,4.7,10.7,15.2,14.8c13,5,19.6,11.3,19.6,22.5c0,11.8-8.8,22.1-26.8,22.1c-7.4,0-15.5-2.2-19.6-4.9L3.9,70.6z"/>
		<path class="st0" d="M71.2,6v32.1h37.1V6h10v76.7h-10V46.8H71.2v35.9h-9.9V6H71.2z"/>
	</g>
	<g>
		<path class="st0" d="M344.7,21.9c1.1,0.7,2.6,1.2,4.3,1.2c2.4,0,3.8-1.3,3.8-3.1c0-1.7-1-2.7-3.5-3.7c-3-1.1-4.9-2.6-4.9-5.2
			c0-2.9,2.4-5,5.9-5c1.9,0,3.2,0.4,4.1,0.9l-0.7,1.9C353.2,8.6,352,8,350.4,8c-2.5,0-3.5,1.5-3.5,2.8c0,1.7,1.1,2.6,3.7,3.5
			c3.1,1.2,4.7,2.7,4.7,5.4c0,2.8-2.1,5.3-6.4,5.3c-1.8,0-3.7-0.5-4.7-1.2L344.7,21.9z"/>
		<path class="st0" d="M368,24.3c-0.6,0.3-2,0.8-3.8,0.8c-4,0-6.6-2.7-6.6-6.7c0-4.1,2.8-7,7.1-7c1.4,0,2.7,0.4,3.3,0.7l-0.5,1.9
			c-0.6-0.3-1.5-0.6-2.8-0.6c-3,0-4.7,2.2-4.7,5c0,3.1,2,4.9,4.6,4.9c1.4,0,2.3-0.4,2.9-0.7L368,24.3z"/>
		<path class="st0" d="M370.8,5.4h2.4v8.2h0.1c0.4-0.7,1-1.3,1.7-1.7c0.7-0.4,1.6-0.7,2.5-0.7c1.8,0,4.6,1.1,4.6,5.6v7.9h-2.4v-7.6
			c0-2.1-0.8-3.9-3.1-3.9c-1.6,0-2.8,1.1-3.2,2.4c-0.1,0.3-0.2,0.7-0.2,1.1v8h-2.4V5.4z"/>
		<path class="st0" d="M385.9,5.4h2.4v19.4h-2.4V5.4z"/>
		<path class="st0" d="M393.7,18.6c0.1,3.2,2.1,4.6,4.5,4.6c1.7,0,2.8-0.3,3.7-0.7l0.4,1.7c-0.8,0.4-2.3,0.8-4.4,0.8
			c-4.1,0-6.5-2.7-6.5-6.7c0-4,2.3-7.1,6.2-7.1c4.3,0,5.5,3.8,5.5,6.2c0,0.5-0.1,0.9-0.1,1.1H393.7z M400.7,16.9
			c0-1.5-0.6-3.9-3.3-3.9c-2.4,0-3.5,2.2-3.7,3.9H400.7z"/>
		<path class="st0" d="M405.7,22.3c0.7,0.5,2,1,3.2,1c1.7,0,2.6-0.9,2.6-2c0-1.1-0.7-1.8-2.5-2.4c-2.4-0.8-3.5-2.2-3.5-3.7
			c0-2.1,1.7-3.9,4.6-3.9c1.3,0,2.5,0.4,3.2,0.8l-0.6,1.7c-0.5-0.3-1.5-0.8-2.7-0.8c-1.4,0-2.2,0.8-2.2,1.8c0,1.1,0.8,1.6,2.5,2.2
			c2.3,0.9,3.5,2,3.5,4c0,2.3-1.8,4-4.9,4c-1.4,0-2.8-0.4-3.7-0.9L405.7,22.3z"/>
		<path class="st0" d="M417.8,11.5l1.7,6.7c0.4,1.5,0.7,2.8,1,4.2h0.1c0.3-1.3,0.7-2.8,1.2-4.2l2.2-6.7h2l2,6.6
			c0.5,1.6,0.9,3,1.2,4.3h0.1c0.2-1.3,0.6-2.7,1-4.3l1.9-6.6h2.4l-4.3,13.2H428l-2-6.3c-0.5-1.5-0.8-2.8-1.2-4.3h-0.1
			c-0.3,1.6-0.7,2.9-1.2,4.4l-2.1,6.3h-2.2l-4-13.2H417.8z"/>
		<path class="st0" d="M439.5,7.8c0,0.8-0.6,1.5-1.5,1.5c-0.8,0-1.4-0.7-1.4-1.5c0-0.8,0.6-1.5,1.5-1.5C439,6.3,439.5,7,439.5,7.8z
			 M436.9,24.7V11.5h2.4v13.2H436.9z"/>
		<path class="st0" d="M454.6,11.5c-0.1,1-0.1,2-0.1,3.6v7.7c0,3-0.6,4.9-1.9,6c-1.3,1.2-3.1,1.6-4.8,1.6c-1.6,0-3.3-0.4-4.4-1.1
			l0.6-1.8c0.9,0.5,2.2,1,3.9,1c2.5,0,4.3-1.3,4.3-4.6v-1.5h-0.1c-0.7,1.2-2.2,2.2-4.2,2.2c-3.3,0-5.6-2.8-5.6-6.4
			c0-4.5,2.9-7,5.9-7c2.3,0,3.5,1.2,4.1,2.3h0.1l0.1-2H454.6z M452.1,16.8c0-0.4,0-0.8-0.1-1.1c-0.4-1.4-1.6-2.5-3.4-2.5
			c-2.3,0-3.9,1.9-3.9,5c0,2.6,1.3,4.7,3.9,4.7c1.5,0,2.8-0.9,3.3-2.5c0.1-0.4,0.2-0.9,0.2-1.3V16.8z"/>
		<path class="st0" d="M464.1,16.5v1.8h-6.7v-1.8H464.1z"/>
		<path class="st0" d="M469.3,6.4v7.7h8.9V6.4h2.4v18.4h-2.4v-8.6h-8.9v8.6h-2.4V6.4H469.3z"/>
		<path class="st0" d="M496.6,18c0,4.9-3.4,7-6.6,7c-3.6,0-6.3-2.6-6.3-6.8c0-4.4,2.9-7,6.5-7C494,11.2,496.6,14,496.6,18z
			 M486.1,18.2c0,2.9,1.7,5.1,4,5.1c2.3,0,4-2.2,4-5.1c0-2.2-1.1-5.1-4-5.1C487.3,13,486.1,15.7,486.1,18.2z"/>
		<path class="st0" d="M499.6,5.4h2.4v19.4h-2.4V5.4z"/>
		<path class="st0" d="M505.7,22.3c0.7,0.5,2,1,3.2,1c1.7,0,2.6-0.9,2.6-2c0-1.1-0.7-1.8-2.5-2.4c-2.4-0.8-3.5-2.2-3.5-3.7
			c0-2.1,1.7-3.9,4.6-3.9c1.3,0,2.5,0.4,3.2,0.8l-0.6,1.7c-0.5-0.3-1.5-0.8-2.7-0.8c-1.4,0-2.2,0.8-2.2,1.8c0,1.1,0.8,1.6,2.5,2.2
			c2.3,0.9,3.5,2,3.5,4c0,2.3-1.8,4-4.9,4c-1.4,0-2.8-0.4-3.7-0.9L505.7,22.3z"/>
		<path class="st0" d="M519.7,7.8v3.8h3.4v1.8h-3.4v7.1c0,1.6,0.5,2.6,1.8,2.6c0.6,0,1.1-0.1,1.4-0.2l0.1,1.8
			c-0.5,0.2-1.2,0.3-2.1,0.3c-1.1,0-2-0.4-2.6-1c-0.7-0.7-0.9-1.9-0.9-3.4v-7.2h-2v-1.8h2V8.4L519.7,7.8z"/>
		<path class="st0" d="M527,18.6c0.1,3.2,2.1,4.6,4.5,4.6c1.7,0,2.8-0.3,3.7-0.7l0.4,1.7c-0.8,0.4-2.3,0.8-4.4,0.8
			c-4.1,0-6.5-2.7-6.5-6.7c0-4,2.3-7.1,6.2-7.1c4.3,0,5.5,3.8,5.5,6.2c0,0.5-0.1,0.9-0.1,1.1H527z M534.1,16.9
			c0-1.5-0.6-3.9-3.3-3.9c-2.4,0-3.5,2.2-3.7,3.9H534.1z"/>
		<path class="st0" d="M542,7.8c0,0.8-0.6,1.5-1.5,1.5c-0.8,0-1.4-0.7-1.4-1.5c0-0.8,0.6-1.5,1.5-1.5C541.5,6.3,542,7,542,7.8z
			 M539.4,24.7V11.5h2.4v13.2H539.4z"/>
		<path class="st0" d="M545.7,15.1c0-1.4,0-2.5-0.1-3.6h2.1l0.1,2.2h0.1c0.7-1.3,2.2-2.5,4.4-2.5c1.8,0,4.7,1.1,4.7,5.6v7.9h-2.4
			v-7.6c0-2.1-0.8-3.9-3.1-3.9c-1.6,0-2.8,1.1-3.2,2.5c-0.1,0.3-0.2,0.7-0.2,1.1v7.9h-2.4V15.1z"/>
		<path class="st0" d="M563.5,7.8c0,0.8-0.6,1.5-1.5,1.5c-0.8,0-1.4-0.7-1.4-1.5c0-0.8,0.6-1.5,1.5-1.5C563,6.3,563.5,7,563.5,7.8z
			 M560.9,24.7V11.5h2.4v13.2H560.9z"/>
		<path class="st0" d="M566.9,22.3c0.7,0.5,2,1,3.2,1c1.7,0,2.6-0.9,2.6-2c0-1.1-0.7-1.8-2.5-2.4c-2.4-0.8-3.5-2.2-3.5-3.7
			c0-2.1,1.7-3.9,4.6-3.9c1.3,0,2.5,0.4,3.2,0.8l-0.6,1.7c-0.5-0.3-1.5-0.8-2.7-0.8c-1.4,0-2.2,0.8-2.2,1.8c0,1.1,0.8,1.6,2.5,2.2
			c2.3,0.9,3.5,2,3.5,4c0,2.3-1.8,4-4.9,4c-1.4,0-2.8-0.4-3.7-0.9L566.9,22.3z"/>
		<path class="st0" d="M587.5,24.3c-0.6,0.3-2,0.8-3.8,0.8c-4,0-6.6-2.7-6.6-6.7c0-4.1,2.8-7,7.1-7c1.4,0,2.7,0.4,3.3,0.7l-0.5,1.9
			c-0.6-0.3-1.5-0.6-2.8-0.6c-3,0-4.7,2.2-4.7,5c0,3.1,2,4.9,4.6,4.9c1.4,0,2.3-0.4,2.9-0.7L587.5,24.3z"/>
		<path class="st0" d="M590.3,5.4h2.4v8.2h0.1c0.4-0.7,1-1.3,1.7-1.7c0.7-0.4,1.6-0.7,2.5-0.7c1.8,0,4.6,1.1,4.6,5.6v7.9h-2.4v-7.6
			c0-2.1-0.8-3.9-3.1-3.9c-1.6,0-2.8,1.1-3.2,2.4c-0.1,0.3-0.2,0.7-0.2,1.1v8h-2.4V5.4z"/>
		<path class="st0" d="M606.7,18.6c0.1,3.2,2.1,4.6,4.5,4.6c1.7,0,2.8-0.3,3.7-0.7l0.4,1.7c-0.8,0.4-2.3,0.8-4.4,0.8
			c-4.1,0-6.5-2.7-6.5-6.7c0-4,2.3-7.1,6.2-7.1c4.3,0,5.5,3.8,5.5,6.2c0,0.5-0.1,0.9-0.1,1.1H606.7z M613.8,16.9
			c0-1.5-0.6-3.9-3.3-3.9c-2.4,0-3.5,2.2-3.7,3.9H613.8z"/>
		<path class="st0" d="M345,36.1h2.4v16.4h7.9v2H345V36.1z"/>
		<path class="st0" d="M365.1,54.5l-0.2-1.7h-0.1c-0.7,1-2.2,2-4,2c-2.7,0-4-1.9-4-3.8c0-3.2,2.8-4.9,7.9-4.9v-0.3
			c0-1.1-0.3-3.1-3-3.1c-1.2,0-2.5,0.4-3.4,1l-0.5-1.6c1.1-0.7,2.7-1.2,4.3-1.2c4,0,5,2.8,5,5.4v4.9c0,1.1,0.1,2.3,0.2,3.2H365.1z
			 M364.8,47.7c-2.6-0.1-5.6,0.4-5.6,3c0,1.6,1,2.3,2.3,2.3c1.7,0,2.8-1.1,3.2-2.2c0.1-0.2,0.1-0.5,0.1-0.8V47.7z"/>
		<path class="st0" d="M371,44.8c0-1.4,0-2.5-0.1-3.6h2.1l0.1,2.2h0.1c0.7-1.3,2.2-2.5,4.4-2.5c1.8,0,4.7,1.1,4.7,5.6v7.9h-2.4v-7.6
			c0-2.1-0.8-3.9-3.1-3.9c-1.6,0-2.8,1.1-3.2,2.5c-0.1,0.3-0.2,0.7-0.2,1.1v7.9H371V44.8z"/>
		<path class="st0" d="M397.5,35.1v16c0,1.2,0,2.5,0.1,3.4h-2.2l-0.1-2.3h-0.1c-0.7,1.5-2.3,2.6-4.5,2.6c-3.2,0-5.6-2.7-5.6-6.7
			c0-4.4,2.7-7.1,5.9-7.1c2,0,3.4,1,4,2h0.1v-7.9H397.5z M395.1,46.6c0-0.3,0-0.7-0.1-1c-0.4-1.5-1.7-2.8-3.5-2.8
			c-2.5,0-4,2.2-4,5.1c0,2.7,1.3,4.9,3.9,4.9c1.6,0,3.1-1.1,3.5-2.9c0.1-0.3,0.1-0.7,0.1-1V46.6z"/>
		<path class="st0" d="M402.8,48.3c0.1,3.2,2.1,4.6,4.5,4.6c1.7,0,2.8-0.3,3.7-0.7l0.4,1.7c-0.8,0.4-2.3,0.8-4.4,0.8
			c-4.1,0-6.5-2.7-6.5-6.7c0-4,2.3-7.1,6.2-7.1c4.3,0,5.5,3.8,5.5,6.2c0,0.5-0.1,0.9-0.1,1.1H402.8z M409.8,46.6
			c0-1.5-0.6-3.9-3.3-3.9c-2.4,0-3.5,2.2-3.7,3.9H409.8z"/>
		<path class="st0" d="M414.8,52c0.7,0.5,2,1,3.2,1c1.7,0,2.6-0.9,2.6-2c0-1.1-0.7-1.8-2.5-2.4c-2.4-0.8-3.5-2.2-3.5-3.7
			c0-2.1,1.7-3.9,4.6-3.9c1.3,0,2.5,0.4,3.2,0.8l-0.6,1.7c-0.5-0.3-1.5-0.8-2.7-0.8c-1.4,0-2.2,0.8-2.2,1.8c0,1.1,0.8,1.6,2.5,2.2
			c2.3,0.9,3.5,2,3.5,4c0,2.3-1.8,4-4.9,4c-1.4,0-2.8-0.4-3.7-0.9L414.8,52z"/>
		<path class="st0" d="M425.8,54.5c0.1-0.9,0.1-2.2,0.1-3.4v-16h2.4v8.3h0.1c0.8-1.5,2.4-2.4,4.5-2.4c3.3,0,5.6,2.7,5.6,6.7
			c0,4.7-3,7.1-5.9,7.1c-1.9,0-3.4-0.7-4.4-2.5H428l-0.1,2.2H425.8z M428.3,49.2c0,0.3,0.1,0.6,0.1,0.9c0.5,1.7,1.9,2.8,3.6,2.8
			c2.5,0,4-2,4-5.1c0-2.6-1.4-4.9-3.9-4.9c-1.6,0-3.2,1.1-3.7,2.9c-0.1,0.3-0.1,0.6-0.1,1V49.2z"/>
		<path class="st0" d="M444.1,37.6c0,0.8-0.6,1.5-1.5,1.5c-0.8,0-1.4-0.7-1.4-1.5c0-0.8,0.6-1.5,1.5-1.5
			C443.5,36.1,444.1,36.7,444.1,37.6z M441.4,54.5V41.3h2.4v13.2H441.4z"/>
		<path class="st0" d="M447.7,54.5c0.1-0.9,0.1-2.2,0.1-3.4v-16h2.4v8.3h0.1c0.8-1.5,2.4-2.4,4.5-2.4c3.3,0,5.6,2.7,5.6,6.7
			c0,4.7-3,7.1-5.9,7.1c-1.9,0-3.4-0.7-4.4-2.5h-0.1l-0.1,2.2H447.7z M450.2,49.2c0,0.3,0.1,0.6,0.1,0.9c0.5,1.7,1.9,2.8,3.6,2.8
			c2.5,0,4-2,4-5.1c0-2.6-1.4-4.9-3.9-4.9c-1.6,0-3.2,1.1-3.7,2.9c-0.1,0.3-0.1,0.6-0.1,1V49.2z"/>
		<path class="st0" d="M463.3,35.1h2.4v19.4h-2.4V35.1z"/>
		<path class="st0" d="M472.5,37.6c0,0.8-0.6,1.5-1.5,1.5c-0.8,0-1.4-0.7-1.4-1.5c0-0.8,0.6-1.5,1.5-1.5
			C471.9,36.1,472.5,36.7,472.5,37.6z M469.8,54.5V41.3h2.4v13.2H469.8z"/>
		<path class="st0" d="M488.1,47.8c0,4.9-3.4,7-6.6,7c-3.6,0-6.3-2.6-6.3-6.8c0-4.4,2.9-7,6.5-7C485.5,41,488.1,43.7,488.1,47.8z
			 M477.6,47.9c0,2.9,1.7,5.1,4,5.1c2.3,0,4-2.2,4-5.1c0-2.2-1.1-5.1-4-5.1C478.9,42.8,477.6,45.4,477.6,47.9z"/>
		<path class="st0" d="M494,37.5v3.8h3.4v1.8H494v7.1c0,1.6,0.5,2.6,1.8,2.6c0.6,0,1.1-0.1,1.4-0.2l0.1,1.8
			c-0.5,0.2-1.2,0.3-2.1,0.3c-1.1,0-2-0.4-2.6-1c-0.7-0.7-0.9-1.9-0.9-3.4v-7.2h-2v-1.8h2v-3.2L494,37.5z"/>
		<path class="st0" d="M500.2,35.1h2.4v8.2h0.1c0.4-0.7,1-1.3,1.7-1.7c0.7-0.4,1.6-0.7,2.5-0.7c1.8,0,4.6,1.1,4.6,5.6v7.9H509v-7.6
			c0-2.1-0.8-3.9-3.1-3.9c-1.6,0-2.8,1.1-3.2,2.4c-0.1,0.3-0.2,0.7-0.2,1.1v8h-2.4V35.1z"/>
		<path class="st0" d="M516.6,48.3c0.1,3.2,2.1,4.6,4.5,4.6c1.7,0,2.8-0.3,3.7-0.7l0.4,1.7c-0.8,0.4-2.3,0.8-4.4,0.8
			c-4.1,0-6.5-2.7-6.5-6.7c0-4,2.3-7.1,6.2-7.1c4.3,0,5.5,3.8,5.5,6.2c0,0.5-0.1,0.9-0.1,1.1H516.6z M523.7,46.6
			c0-1.5-0.6-3.9-3.3-3.9c-2.4,0-3.5,2.2-3.7,3.9H523.7z"/>
		<path class="st0" d="M531.3,47.3L531.3,47.3c0.4-0.5,0.8-1,1.2-1.5l3.9-4.6h2.9l-5.1,5.4l5.8,7.8h-2.9l-4.6-6.3l-1.2,1.4v5h-2.4
			V35.1h2.4V47.3z"/>
	</g>
	<path class="st1" d="M175.3,1.8c4.1,0,8.3,0,12.4,0c2.5,0,4.7,0.5,5.6,3.3c0.5,1.3,2.3,1.8,2.1,4.4c2-3.2,3.9-5.5,6.5-7.7
		c4.6,0,9.5,0,14.4,0c0.8,0.2,1.9-0.5,2,1c-0.1,0.6,0.3,1.3-0.3,1.9c-1.1,1-2.1,2.1-3.1,3.1c-4.1,0-8.1,0-12.1,0
		c-2.5,0.6-2.8,3.3-4.5,4.6c0.3,3,0.1,6.1-1.5,9.4c-1,1-2.4,2.4-3.3,3.3c-4.2,2.1-8.1,1.6-12,1.6c-8.2,0-16.3,0-24.7,0
		c-0.6,0.8-1.4,1.6-2.3,2.8c0,0.5,0,1.5,0,2.7c1.1,1,2.3,2.1,3.8,3.4c4.1-0.1,8.4,1.8,13,1.1c2.7,1.7,6,0.1,8.5,1.2
		c2.8,1.3,5.5,0.3,8.2,0.8c3,0.6,5.9,1.6,9.3,0.7c1.5-0.9,1.1-2.6,1.1-4.2c-0.7-1-1.9-0.1-2.4-0.4c-0.8-0.7-0.6-1.2-0.5-1.8
		c1.4-0.6,3.7,0,3.9-2.4c-0.5-1.8-2.3-0.1-2.9-1.2c0-0.4-0.1-0.7-0.1-1.3c1.6-0.3,3.2-0.7,4.7-1.6c2.4-3.5,2.3-7.4,1.1-11.7
		c2.9,0.1,4.4,1.6,6,3c6.8-3.2,12.2,0.8,18.3,2.9c0,1.8,0,3.4,0,5c-1.6-0.2-0.5,1.8-1.6,2c-1.4,0-2.9,0-4.4,0c-1.9,0-3.9,0-5.8,0
		c-0.7,0-1.3,0.1-1.2,1c0,0.3,0,0.7,0,1c-0.1,1,0.6,1,1.3,1c3.1,0,6.3,0,9.4,0c0.7,0,1.4,0,1.3,1c-4.3,0-8.5,0-13.6,0
		c0.9,0.9,0.1,2,1.6,2c3.3,0,6.7,0,10,0c0.3,1.3-0.4,2.2-1.4,2.8c-1.1,0.7-2.4,1-3.6,1.5c1.7,2,3.3,3.8,5,5.7c0,0.3,0,0.7,0,1
		c0.8,2.2,1.1,4.4,1.2,6.7c0,0.1,0.5,0.2,0.8,0.3c-0.5,1.7,1.8,2.8,0.9,4.6c-0.4,0.6-1.1,0.3-1.8,0.3c-0.6,0-0.9,0.2-1.1,0.7
		c1.8,2.8,8.2,8.1,13.8,11.3c3.4-1,6.7-3.8,10.5,0.2c-2,0.9-4.3,1.2-5.1,3.4c1.6,0.3,2.5,1.7,3.7,2.8c0.1,1.1,0.3,2.3-0.2,3.4
		c-1.4-0.5-2.8-1.7-4.4,0.5c-0.9-1.2-1.7-2.4-2.6-3.6c-1.8,2.6-0.6,6.3-4.3,7.6c-0.6-2.8-1.1-5.4-1.7-7.9c-0.4,0.6-0.9,1.3-1.4,2.1
		c-1.1-0.8-1.4-1.1-1.7-1.3c-1.3-1.1-2,1.8-3.4,0.6c-0.1-0.3-0.3-0.7-0.2-0.9c0.9-1.2,1.9-2.3,3-3.5c-3.3-2.5-7.5-3.3-11.3-5
		c-3.6-1.6-7.4-3-11.3-4.5c-0.4-1.1-1.5-2.1-1.6-3.7c-1.8,0-3.4,0-3.9,0c-4-0.9-6-3.6-9-4.1c0-0.3,0-0.7,0-1c-0.4-1.6-1.4-2.2-3-2
		c-0.1-1.5-1.2-0.8-2-1c-0.1-1.5-1.2-0.8-2-1c-1.3,0-2.5,0-3.8,0c-0.7,0-1.3,0.1-1.2,1c-1.5,1.5-4,1.8-5,4c-0.8-0.1-1.1,0.7-1.5,1.1
		c-4,3.6-7.2,8-11.9,10.9c-1.5,0.9-2.6,2.5-4.2,4.1c2.7,1.2,5,2.2,7.3,3.2c0,1.3,1.5,2,1.2,3.2c-0.7,0.8-1.4,0.4-2,0.5
		c-0.3-1.9-1.9-0.9-2.8-0.9c-1.2,0-1.6-1.9-3.3-0.5c1.7,0.1,0.3,2.3,2.1,2.4c0,1.3,0,2.6,0,3.8c-2.7,0.5-2.6-1.7-3.5-2.8
		c-2.1,0.9-0.8-3.3-3.7-1.4c-0.4,0.4,0.7,1.6-0.2,3c-0.6,0.5-1.5,1.3-2.4,2c-0.9-1.3,0.7-3.3-0.9-4.9c-1.5-1.5,1.1-2.8,0.7-4.2
		c-0.6-0.8-1.4-0.4-2-0.5c0.1-0.6-0.3-0.9-0.8-1c-0.7-0.1-1.3-0.1-1.2-1c0-1,1-1.2,1.4-2c1.3,0,2.6,0,3.9,0c3.3-5.1,4.3-11.3,8-16
		c1.2-0.5,1.5,0.6,2.2,0.8c1.9-4.1,4.1-7.9,5.4-12.3c-0.4-0.4-0.9-0.9-1.4-1.5c-6-0.2-12-0.7-15.6-6.5c0-2.4,0-4.7,0-6.8
		c2.6-4.7,7.3-4.9,11.2-5.9c2.9-3.3,4.4-7.7,9-9.1c0.5,0.5,1,0.9,1.2,1.1c-0.9,0.9-1.9,1.9-2.6,2.6c0.7,2.4-0.7,3.5-0.9,4.8
		c1,1.3,2.3,0.1,3.1,0.8c2.9-1.3,3.1-4.8,5.6-6.1c1,0,2,0,2.9,0c0.5,0.3,0.5,0.5,0.2,0.8c-1.4,1.3-2.6,2.7-2.8,5c4.6,0,9.1,0,13.8,0
		c0.6-0.6,1.4-1.5,2.3-2.4c-0.2-4.2,1.4-9.2-5.2-11.4c-3.3,0-7.3,0-11.4,0c-0.9-1.8-3.7-2.3-3.4-5C173.3,1.3,174.5,2,175.3,1.8z
		 M211.3,22.8c0.2,0.6-0.5,1.6,0.7,1.9c0.1-0.3,0.2-0.6,0.3-0.9c2.9,1.6,3,1.5,5-1c0.6-0.1,1.3,0.3,1.8-0.3c0.6-1.9-0.7-1.7-1.8-1.7
		c-0.8-2.1-2.4-0.5-3.6-0.9C213,21,211.5,21.4,211.3,22.8z"/>
	<path class="st2" d="M309.9,7c0.5,0.5,0.9,0.9,1.3,1.3c-0.3,0.3-0.6,0.7-1.1,1.3c1.5,1.6,1.2,3.7,1.1,5.8c-0.8,0.8-1.7,1.7-2.5,2.5
		c-3.9,1.4-7.9,2.4-11.9,4.4c4.5,1.9,8.1,4.4,13.5,5.6c-4.7,3-9.2,3.6-13,5.5c0,0.7,0,1.1,0.8,1.5c2.8,1.2,5.6,2.6,8.4,4
		c1,0.5,2.1,1.1,1.7,2.6c-3.9,0.9-7.9,1.7-12.4,2.7c2.8,4.1,7.4,5.2,10.5,8.2c-0.4,0.5-0.9,0.9-1.4,1.5c-2.9,0-5.9,0-9.2,0
		c-0.4,0.5-1,1.1-1.4,1.5c0,0.7,0.1,1.1,0.4,1.5c2,2.1,4.9,3.2,6.7,5.6c0.4,0.5,1,0.9,0.8,2.1c-1.8,0.7-3.9,0.2-6,0.3
		c-1.9,0.1-3.9,0-6.4,0c2.2,3.9,5.3,6.6,6.5,10.2c-3.3,2.7-6.5,5.2-10,8c-4.9-1-7.7-5.7-12.4-7.7c2.3-3.4,4.4-6.6,7-10.4
		c-4.6,0-8.5,0-12.7,0c0.3-3.1,2.9-3.5,4.4-4.9c1.6-1.5,3.1-3,4.6-4.6c-3.6-2.2-7.7-1.4-11.4-1.6c-0.5-0.5-0.9-0.9-1.2-1.2
		c-0.3-0.2-0.2-0.4,0.2-0.7c2-1.6,4.3-2.5,6.4-3.9c1.4-1,2.3-2.1,4-3.5c-4.7-1.4-8.7-2.3-13.4-2.9c1.8-2.4,4.2-2.6,5.9-3.8
		c1.8-1.4,3.8-2.5,6.3-3.6c-2.2-2.2-4.7-2.3-6.7-3.2c-2-0.8-4.4-0.6-5.9-2.5c3.9-2.2,7.9-4.1,12.4-5.8c-4.2-3.6-9.7-3-13.3-6.1
		c0-3.3,0-6.4,0-9.6c3.9,0,7.7,0,11.6,0c2.2,3.4,3.8,7.1,5.7,11c1.8-3.2,2.3-6.7,2.9-10.5c2.4,3.5,2.9,7.4,5.2,11.2
		c0.9-4.1,2.1-7.4,3.8-10.7c2.1,3.1,0.9,7.1,3.1,10c1.5-3.8,4.4-6.8,5.7-10.9C302.2,7,306,7,309.9,7z"/>
	<path class="st3" d="M191.3,55.8c0,0.8-0.2,1.7,0.7,2.1c0,2.8-2.5,4.5-2.8,7.2c2.8,1.1,4.3,3.5,6.5,5.4c2.6-0.7,4.7-3.4,8.1-2.7
		c0.7,0.8,1.5,1.8,2.3,2.8c-1.8-0.4-3,1.1-4.8,1.2c0.9,1.8,2.3,1.9,3.7,2c0.5,1,0.9,2,1.5,3.3c-1,0.6-2.1,1.1-3.1,1.6
		c-1.8-0.8-3.4-1.5-4.9-3.6c-0.3,2.5,1.9,3.9,1.1,6c-1,0.8-1.9,1.6-2.9,2.5c-0.8-0.9,0.3-2.7-1.3-3.3c-1.7-0.6-0.5-2.5-1.5-3.6
		c-1.4,0.4-2.8,1.1-4,2.1c-1.5-1.7,0.5-2.9,0.6-4.5c-4.1-2.6-8.1-5.2-12-7.7c-0.2-2,1.5-2.3,1.9-3.3c0.3-2.9-2-4.4-3-6.5
		c0-0.5,0-1,0-1.4c2.1-1.1,2.1-1.1,4-3.6c1,0,2,0,3,0c1.3,0.7,2.7,1.3,4,2C189.3,54.5,190.3,55.2,191.3,55.8z"/>
	<path class="st4" d="M230.3,29.8c2.3-0.7,2.7-2.9,4-4.6c-2.8-4.7-2.8-5.5,0.4-9.9c0.7,2.3,1.3,4.2,2,6.4c2.8-1.7,1.8-6.8,6.4-6.4
		c0,1.2,0,3,0,5.2c-0.4,0.3-1.2,0.9-2,1.6c1.6,1.2,3.1,0.2,5,1c0.6,0.6,1.9,1.3,2.3,2.8c-0.2,0.4-0.4,0.8-0.6,0.8c-2,0.1-4,0-6,0
		c-1.1,0.9,0,2.2-0.7,3.2c0.9,1,1.6,1.8,2.2,2.5c-0.1,1.4-1,1.8-1.8,2.3c-1.6,0.2-1.7-1.9-3.5-2c-3.7,5.5-7.5,11-10.7,17
		c-1.6-1-2-2.5-2-4.3c0-0.7,0.3-1.7-1-1.7c0-0.3,0-0.7,0-1c-0.5-1.1-1.5-2.1-0.9-3.7c2.2-1.1,2.1-4.6,4.9-5.3c1.5-0.1,0.8-1.2,1-2
		c0.7,0,1-0.3,1-1C230.3,30.5,230.3,30.2,230.3,29.8z"/>
	<path class="st5" d="M230.3,29.8c0,0.3,0,0.7,0,1c-0.7,0-1,0.3-1,1c-1.5,0.1-0.8,1.2-1,2c-2.8,0.8-2.7,4.2-4.9,5.3
		c-0.6,1.6,0.4,2.5,0.9,3.7c-0.7,0-1,0.3-1,1c-1.6-1.8-3.2-3.7-5-5.7c1.2-0.5,2.5-0.9,3.6-1.5c1-0.6,1.7-1.5,1.4-2.8
		c0-0.3,0-0.7,0-1c0.8-0.2,1.9,0.5,2-1c0.8,0,1.5,0.1,2.2-0.6c0.5-0.6,0.8-1.4,1.8-1.4C229.6,29.8,229.9,29.8,230.3,29.8z"/>
	<path class="st6" d="M229.3,29.8c-1,0-1.3,0.8-1.8,1.4c-0.7,0.7-1.4,0.6-2.2,0.6c0.1-1-0.6-1-1.3-1c-3.1,0-6.3,0-9.4,0
		c-0.7,0-1.4,0-1.3-1c3.9,0,7.7,0,11.7,0c0.5-1.2,2.1-1.6,2.3-3c-0.1-1,1-1.2,1.6-2.3c0.3,0.7,0.6,1.3,0.9,2
		C229,27.2,229.3,28.5,229.3,29.8z"/>
	<path class="st7" d="M227.3,26.8c-0.2,1.4-1.8,1.8-2.3,3c-4,0-7.8,0-11.7,0c0-0.3,0-0.7,0-1c1.9,0,3.9,0,5.8,0c0.7,0,1.3-0.1,1.2-1
		c1.5,0,3,0,4.4,0c1.1-0.2,0-2.2,1.6-2C226.2,26.5,226.6,26.8,227.3,26.8z"/>
	<path class="st8" d="M224.3,43.8c1.3,0,1,1,1,1.7c0,1.8,0.4,3.3,2,4.3c0.1,0.9-0.6,0.9-1.2,1c-0.5,0.1-0.9,0.4-0.8,1
		c-0.3-0.1-0.8-0.2-0.8-0.3c-0.2-2.3-0.4-4.5-1.2-6.7C223.9,44.8,224.3,44.5,224.3,43.8z"/>
	<path class="st9" d="M181.3,51.8c-1.9,2.5-1.9,2.5-4,3.6c0,0.5,0,1,0,1.4c-0.9,0.1-0.9-0.6-1-1.2c-0.1-0.5-0.4-0.9-1-0.8
		c1-2.2,3.5-2.5,5-4C180.2,51.5,180.6,51.8,181.3,51.8z"/>
	<path class="st10" d="M160.3,78.8c-1.8-0.1-0.4-2.3-2.1-2.4c1.7-1.4,2.2,0.5,3.3,0.5c0.9,0,2.4-1,2.8,0.9c-0.9,0-1.9,0-2.8,0
		C160.8,77.8,160.2,78,160.3,78.8z"/>
	<path class="st11" d="M191.3,55.8c-1-0.7-2-1.3-3-2c0-0.7,0.3-1,1-1c1.1,0.1,1.7,1.5,3,1c0,0.3,0,0.7,0,1
		C191.6,54.8,191.2,55.1,191.3,55.8z"/>
	<path class="st12" d="M218.3,2.8c-0.1-1.5-1.2-0.8-2-1c0.3-1.8,1.7-0.7,2.6-0.9C219.4,1.8,219.7,2.5,218.3,2.8z"/>
	<path class="st13" d="M146.3,71.8c-0.1,0.9,0.6,0.9,1.2,1c0.5,0.1,0.9,0.4,0.8,1c-0.9-0.1-1.9,0.3-2.8-0.3
		C145.2,72.7,145,71.9,146.3,71.8z"/>
	<path class="st14" d="M175.3,1.8c-0.8,0.2-1.9-0.5-2,1c-1.2,0-1-0.8-0.9-1.7C173.4,1,174.6,0,175.3,1.8z"/>
	<path class="st15" d="M217.3,22.8c-2,2.5-2.1,2.6-5,1c0-0.7-0.3-1-1-1c0.2-1.4,1.7-1.8,2.4-2.9c1.2,0.4,2.8-1.2,3.6,0.9
		c-0.7,0-1,0.3-1,1c-0.6,0.2-1.6-0.5-1.9,0.6c0.6,0.7,1.3,0.2,1.9,0.4C216.6,22.8,216.9,22.8,217.3,22.8z"/>
	<path class="st6" d="M225.3,31.8c-0.1,1.5-1.2,0.8-2,1c-2.9,0-5.8,0-8.8,0c-0.7,0-1.3,0.1-1.2,1c-1.5,0-0.7-1.1-1.6-2
		C216.7,31.8,221,31.8,225.3,31.8z"/>
	<path class="st16" d="M213.3,33.8c-0.1-0.9,0.6-1,1.2-1c2.9,0,5.8,0,8.8,0c0,0.3,0,0.7,0,1C219.9,33.8,216.6,33.8,213.3,33.8z"/>
	<path class="st17" d="M184.3,51.8c-1,0-2,0-3,0c0-0.7-0.3-1-1-1c-0.1-0.9,0.5-1,1.2-1c1.3,0,2.5,0,3.8,0c0,0.3,0,0.7,0,1
		C184.6,50.8,184.2,51.1,184.3,51.8z"/>
	<path class="st6" d="M220.3,27.8c0.1,0.9-0.5,1-1.2,1c-1.9,0-3.9,0-5.8,0c-0.1-0.9,0.5-1,1.2-1C216.4,27.8,218.3,27.8,220.3,27.8z"
		/>
	<path class="st18" d="M216.3,21.8c0-0.7,0.3-1,1-1c1.1,0,2.5-0.3,1.8,1.7c-0.5,0.6-1.2,0.2-1.8,0.3c-0.3,0-0.7,0-1,0
		C216.3,22.5,216.3,22.2,216.3,21.8z"/>
	<path class="st3" d="M192.3,53.8c-1.3,0.5-1.9-0.9-3-1c0-0.3,0-0.7,0-1C190.8,51.7,191.9,52.2,192.3,53.8z"/>
	<path class="st19" d="M224.3,43.8c0,0.7-0.3,1-1,1c0-0.3,0-0.7,0-1c0-0.7,0.3-1,1-1C224.3,43.2,224.3,43.5,224.3,43.8z"/>
	<path class="st3" d="M185.3,50.8c0-0.3,0-0.7,0-1c0.8,0.2,1.9-0.5,2,1C186.6,50.8,185.9,50.8,185.3,50.8z"/>
	<path class="st20" d="M211.3,22.8c0.7,0,1,0.3,1,1c-0.1,0.3-0.2,0.6-0.3,0.9C210.7,24.4,211.5,23.4,211.3,22.8z"/>
	<path class="st3" d="M187.3,50.8c0.8,0.2,1.9-0.5,2,1C188.5,51.7,187.3,52.3,187.3,50.8z"/>
	<path class="st21" d="M187.3,50.8c0.1,1.5,1.2,0.8,2,1c0,0.3,0,0.7,0,1c-0.7,0-1,0.3-1,1c-1.3-0.7-2.7-1.3-4-2c0-0.7,0.3-1,1-1
		C185.9,50.8,186.6,50.8,187.3,50.8z"/>
	<path class="st6" d="M228.3,33.8c0.2-0.8-0.5-1.9,1-2C229.1,32.6,229.8,33.7,228.3,33.8z"/>
	<path class="st6" d="M229.3,31.8c0-0.7,0.3-1,1-1C230.3,31.5,229.9,31.8,229.3,31.8z"/>
	<path class="st22" d="M180.3,50.8c0.7,0,1,0.3,1,1C180.6,51.8,180.2,51.5,180.3,50.8z"/>
	<path class="st1" d="M216.3,21.8c0,0.3,0,0.7,0,1c-0.6-0.1-1.3,0.3-1.9-0.4C214.7,21.3,215.6,22,216.3,21.8z"/>
</g>
</svg>
